{
  "type": "layer-target",
  "settings": {
    "color": "green",
    "interval": 1000,
    "maxtracklen": 100,
    "name": "APITest",
    "options": {
      "showdash": true,
      "showrph": true,
      "showbatt": true,
      "showtrack": true,
      "setstate": true,
      "autotrack": true
    },
    "size": {
      "length": 5,
      "loffset": 1,
      "width": 4
    },
    "url": "data/platformdata.api.Platform/test",
    "commandurl": "send_command/platformdata.api.Platform/test"
  }
}