{
  "type": "layer-mission",
  "settings": {
    "name": "APITestMission",
    "filepath": "/useful/path/to/code/or/missiondir",
    "url": "/get_mission/platformdata.api.Platform/test",
    "interval": 2000,
    "clearold": true
  }
}