{
  "type": "layer-target",
  "settings": {
    "color": "green",
    "interval": 1000,
    "maxtracklen": 300,
    "name": "Online SAM",
    "options": {
      "showdash": true,
      "showrph": true,
      "showbatt": false,
      "showtrack": true,
      "setstate": true,
      "autotrack": false
    },
    "size": 3,
    "url": "data/platformdata.api.Platform/NAV_CHANNEL",
    "commandurl": ""
  }
}
