{
  "type": "layer-target",
  "settings": {
    "color": "blue",
    "interval": 1000,
    "maxtracklen": 100,
    "name": "AUV ImgOrb",
    "options": {
      "showdash": false,
      "showrph": false,
      "showbatt": true,
      "showtrack": true,
      "setstate": true,
      "autotrack": false
    },
    "size": 4,
    "url": "data/platformdata.api.Platform/umich.imorb",
    "commandurl": "send_command/platformdata.lcmbased.Platform/umich.imorb"
  }
}
